﻿


EVENT   1
 PAGE   1
  // condition: variable 1011 >= 4
  If(1,1001,0,29,2)
   ShowMessageFace("",0,0,2,1)
   ShowMessage("\\n<Harpy Wife>Geez, I just left for a little while. Can I not quietly return home?")
   355("actor_label_jump")
   EndEventProcessing()
   DefineLabel("74")
   ShowMessageFace("usagi_fc1",2,0,2,2)
   ShowMessage("\\n<Barbun>Yeah, some of these guys are pretty worthless...")
   EndEventProcessing()
   DefineLabel("75")
   ShowMessageFace("hituzi_fc1",3,0,2,3)
   ShowMessage("\\n<Mary>This bird complains like a rabbit. Is she hiding her long ears?")
   EndEventProcessing()
   DefineLabel("108")
   ShowMessageFace("kai_fc1",0,0,2,4)
   ShowMessage("\\n<Shelly>Does serving your husband not make you happy?")
   EndEventProcessing()
   0()
  EndIf()
  If(1,1001,0,30,1)
   ShowMessageFace("",0,0,2,5)
   ShowMessage("【ハーピー奥さん】")
   ShowMessage("まったく、情けない夫よね……")
   ShowMessage("ほら、抱っこしてあげるからおいで♪")
   EndEventProcessing()
   0()
  EndIf()
  0()



EVENT   2
 PAGE   1
  ShowMessageFace("",0,0,2,1)
  ShowMessage("\\n<Helper Girl>Welcome! Feel free to browse our items!")
  Shop(0,1,0,0,false)
  605(0,11,0,0)
  605(0,13,0,0)
  605(0,14,0,0)
  605(0,17,0,0)
  605(0,23,0,0)
  605(0,35,0,0)
  0()



EVENT   3
 PAGE   1
  281(1)
  250(bytes(0x04,0x08,0x6f,0x3a,0x0c,0x52,0x50,0x47,0x3a,0x3a,0x53,0x45,0x08,0x3a,0x0a,0x40,0x6e,0x61,0x6d,0x65,0x49,0x22,0x09,0x4d,0x6f,0x76,0x65,0x06,0x3a,0x06,0x45,0x54,0x3a,0x0b,0x40,0x70,0x69,0x74,0x63,0x68,0x69,0x69,0x3a,0x0c,0x40,0x76,0x6f,0x6c,0x75,0x6d,0x65,0x69,0x55))
  TeleportPlayer(0,341,18,6,0,0)
  0()



EVENT   4
 PAGE   1
  281(1)
  250(bytes(0x04,0x08,0x6f,0x3a,0x0c,0x52,0x50,0x47,0x3a,0x3a,0x53,0x45,0x08,0x3a,0x0a,0x40,0x6e,0x61,0x6d,0x65,0x49,0x22,0x09,0x4d,0x6f,0x76,0x65,0x06,0x3a,0x06,0x45,0x54,0x3a,0x0b,0x40,0x70,0x69,0x74,0x63,0x68,0x69,0x69,0x3a,0x0c,0x40,0x76,0x6f,0x6c,0x75,0x6d,0x65,0x69,0x55))
  TeleportPlayer(0,341,18,6,0,0)
  0()



EVENT   5
 PAGE   1
  281(1)
  250(bytes(0x04,0x08,0x6f,0x3a,0x0c,0x52,0x50,0x47,0x3a,0x3a,0x53,0x45,0x08,0x3a,0x0a,0x40,0x6e,0x61,0x6d,0x65,0x49,0x22,0x09,0x4d,0x6f,0x76,0x65,0x06,0x3a,0x06,0x45,0x54,0x3a,0x0b,0x40,0x70,0x69,0x74,0x63,0x68,0x69,0x69,0x3a,0x0c,0x40,0x76,0x6f,0x6c,0x75,0x6d,0x65,0x69,0x55))
  TeleportPlayer(0,341,27,6,0,0)
  216(0)
  0()



EVENT   6
 PAGE   1
  281(1)
  250(bytes(0x04,0x08,0x6f,0x3a,0x0c,0x52,0x50,0x47,0x3a,0x3a,0x53,0x45,0x08,0x3a,0x0a,0x40,0x6e,0x61,0x6d,0x65,0x49,0x22,0x09,0x4d,0x6f,0x76,0x65,0x06,0x3a,0x06,0x45,0x54,0x3a,0x0b,0x40,0x70,0x69,0x74,0x63,0x68,0x69,0x69,0x3a,0x0c,0x40,0x76,0x6f,0x6c,0x75,0x6d,0x65,0x69,0x55))
  TeleportPlayer(0,341,27,6,0,0)
  216(0)
  0()



EVENT   7
 PAGE   1
  281(1)
  250(bytes(0x04,0x08,0x6f,0x3a,0x0c,0x52,0x50,0x47,0x3a,0x3a,0x53,0x45,0x08,0x3a,0x0a,0x40,0x6e,0x61,0x6d,0x65,0x49,0x22,0x09,0x4d,0x6f,0x76,0x65,0x06,0x3a,0x06,0x45,0x54,0x3a,0x0b,0x40,0x70,0x69,0x74,0x63,0x68,0x69,0x69,0x3a,0x0c,0x40,0x76,0x6f,0x6c,0x75,0x6d,0x65,0x69,0x55))
  TeleportPlayer(0,341,9,50,0,0)
  0()



EVENT   8
 PAGE   1
  281(1)
  250(bytes(0x04,0x08,0x6f,0x3a,0x0c,0x52,0x50,0x47,0x3a,0x3a,0x53,0x45,0x08,0x3a,0x0a,0x40,0x6e,0x61,0x6d,0x65,0x49,0x22,0x09,0x4d,0x6f,0x76,0x65,0x06,0x3a,0x06,0x45,0x54,0x3a,0x0b,0x40,0x70,0x69,0x74,0x63,0x68,0x69,0x69,0x3a,0x0c,0x40,0x76,0x6f,0x6c,0x75,0x6d,0x65,0x69,0x55))
  TeleportPlayer(0,341,9,50,0,0)
  0()



EVENT   9
 PAGE   1
  281(1)
  250(bytes(0x04,0x08,0x6f,0x3a,0x0c,0x52,0x50,0x47,0x3a,0x3a,0x53,0x45,0x08,0x3a,0x0a,0x40,0x6e,0x61,0x6d,0x65,0x49,0x22,0x09,0x4d,0x6f,0x76,0x65,0x06,0x3a,0x06,0x45,0x54,0x3a,0x0b,0x40,0x70,0x69,0x74,0x63,0x68,0x69,0x69,0x3a,0x0c,0x40,0x76,0x6f,0x6c,0x75,0x6d,0x65,0x69,0x55))
  TeleportPlayer(0,341,25,51,0,0)
  0()



EVENT   10
 PAGE   1
  281(1)
  250(bytes(0x04,0x08,0x6f,0x3a,0x0c,0x52,0x50,0x47,0x3a,0x3a,0x53,0x45,0x08,0x3a,0x0a,0x40,0x6e,0x61,0x6d,0x65,0x49,0x22,0x09,0x4d,0x6f,0x76,0x65,0x06,0x3a,0x06,0x45,0x54,0x3a,0x0b,0x40,0x70,0x69,0x74,0x63,0x68,0x69,0x69,0x3a,0x0c,0x40,0x76,0x6f,0x6c,0x75,0x6d,0x65,0x69,0x55))
  TeleportPlayer(0,341,25,51,0,0)
  0()



EVENT   11
 PAGE   1
  281(1)
  250(bytes(0x04,0x08,0x6f,0x3a,0x0c,0x52,0x50,0x47,0x3a,0x3a,0x53,0x45,0x08,0x3a,0x0a,0x40,0x6e,0x61,0x6d,0x65,0x49,0x22,0x09,0x4d,0x6f,0x76,0x65,0x06,0x3a,0x06,0x45,0x54,0x3a,0x0b,0x40,0x70,0x69,0x74,0x63,0x68,0x69,0x69,0x3a,0x0c,0x40,0x76,0x6f,0x6c,0x75,0x6d,0x65,0x69,0x55))
  TeleportPlayer(0,341,10,29,0,0)
  0()



EVENT   12
 PAGE   1
  281(1)
  250(bytes(0x04,0x08,0x6f,0x3a,0x0c,0x52,0x50,0x47,0x3a,0x3a,0x53,0x45,0x08,0x3a,0x0a,0x40,0x6e,0x61,0x6d,0x65,0x49,0x22,0x09,0x4d,0x6f,0x76,0x65,0x06,0x3a,0x06,0x45,0x54,0x3a,0x0b,0x40,0x70,0x69,0x74,0x63,0x68,0x69,0x69,0x3a,0x0c,0x40,0x76,0x6f,0x6c,0x75,0x6d,0x65,0x69,0x55))
  TeleportPlayer(0,341,10,29,0,0)
  0()



EVENT   13
 PAGE   1
  281(1)
  250(bytes(0x04,0x08,0x6f,0x3a,0x0c,0x52,0x50,0x47,0x3a,0x3a,0x53,0x45,0x08,0x3a,0x0a,0x40,0x6e,0x61,0x6d,0x65,0x49,0x22,0x09,0x4d,0x6f,0x76,0x65,0x06,0x3a,0x06,0x45,0x54,0x3a,0x0b,0x40,0x70,0x69,0x74,0x63,0x68,0x69,0x69,0x3a,0x0c,0x40,0x76,0x6f,0x6c,0x75,0x6d,0x65,0x69,0x55))
  TeleportPlayer(0,341,29,17,0,0)
  0()



EVENT   14
 PAGE   1
  281(1)
  250(bytes(0x04,0x08,0x6f,0x3a,0x0c,0x52,0x50,0x47,0x3a,0x3a,0x53,0x45,0x08,0x3a,0x0a,0x40,0x6e,0x61,0x6d,0x65,0x49,0x22,0x09,0x4d,0x6f,0x76,0x65,0x06,0x3a,0x06,0x45,0x54,0x3a,0x0b,0x40,0x70,0x69,0x74,0x63,0x68,0x69,0x69,0x3a,0x0c,0x40,0x76,0x6f,0x6c,0x75,0x6d,0x65,0x69,0x55))
  TeleportPlayer(0,341,29,17,0,0)
  0()



EVENT   15
 PAGE   1
  ShowMessageFace("",0,0,2,1)
  ShowMessage("\\n<Young Shopkeeper>Welcome! Good weapons are a necessity when adventuring, and we carry lots of good ones!")
  Shop(1,4,0,0,false)
  605(1,193,0,0)
  605(1,365,0,0)
  605(1,474,0,0)
  605(1,592,0,0)
  605(1,661,0,0)
  605(1,727,0,0)
  605(1,823,0,0)
  0()



EVENT   16
 PAGE   1
  ShowMessageFace("",0,0,2,1)
  ShowMessage("\\n<Young Wife>Welcome, some armor for you? Harpy feather hats are lightweight and durable!")
  Shop(2,4,0,0,false)
  605(2,19,0,0)
  605(2,56,0,0)
  605(2,123,0,0)
  605(2,148,0,0)
  605(2,179,0,0)
  605(2,274,0,0)
  0()



EVENT   17
 PAGE   1
  ShowMessageFace("",0,0,2,1)
  ShowMessage("\\n<Traveling Mage>Certain weapons may have hidden powers that allow you to use a special skill when equipped.")
  ShowMessageFace("",0,0,2,2)
  ShowMessage("\\n<Traveling Mage>If you want to try it out, buy a [Wizard Staff] here and equip it. In battle, you should have a new command: [Weapon].")
  ShowMessageFace("",0,0,2,3)
  ShowMessage("\\n<Traveling Mage>Always check the descriptions for weapons. If you see something like [Staff+], the [+] indicates that it has a skill.")
  0()


EVENT   18
 PAGE   1
  ShowMessageFace("",0,0,2,1)
  ShowMessage("\\n<Hostess>This small inn thanks you for your hospitality. Would you like to spend the night for 10G?") 
  ShowChoices(strings("Yes","No"),2)
  IfPlayerPicksChoice(0,null)
   If(7,10,0)
    125(1,0,10)
    221()
    249(bytes(0x04,0x08,0x6f,0x3a,0x0c,0x52,0x50,0x47,0x3a,0x3a,0x4d,0x45,0x08,0x3a,0x0a,0x40,0x6e,0x61,0x6d,0x65,0x49,0x22,0x08,0x49,0x6e,0x6e,0x06,0x3a,0x06,0x45,0x54,0x3a,0x0b,0x40,0x70,0x69,0x74,0x63,0x68,0x69,0x69,0x3a,0x0c,0x40,0x76,0x6f,0x6c,0x75,0x6d,0x65,0x69,0x69))
    Wait(150)
    314(0,0)
    222()
    0()
   Else()
    ShowMessageFace("",0,0,2,2)
    ShowMessage("\\n<Hostess>Oh, you don't have enough money.")
    0()
   EndIf()
   0()
  IfPlayerPicksChoice(1,null)
   0()
  404()
  0()



EVENT   19
 PAGE   1
  ShowMessageFace("",0,0,2,1)
  ShowMessage("\\n<Man>Ooooh! Lella, return to me!")
  355("actor_label_jump")
  EndEventProcessing()
  DefineLabel("75")
  ShowMessageFace("hituzi_fc1",3,0,2,2)
  ShowMessage("\\n<Mary>Now, now, drink some beer and drown your sorrows.")
  ShowMessageFace("",0,0,2,3)
  ShowMessage("\\n<Man>*Gulp, gulp, gulp* Ohhhh! Ooooohhhhh!!")
  ShowMessageFace("hituzi_fc1",3,0,2,4)
  ShowMessage("\\n<Mary>Great, now he's sad and drunk...")
  EndEventProcessing()
  0()
 PAGE   2
  // condition: variable 1011 >= 4
  If(1,1001,0,29,2)
   ShowMessageFace("",0,0,2,1)
   ShowMessage("\\n<Man>Oooh! Lella! Lella returned to me!")
   355("actor_label_jump")
   EndEventProcessing()
   DefineLabel("71")
   ShowMessageFace("okami_fc1",0,0,2,2)
   ShowMessage("\\n<Amara>That's good!")
   EndEventProcessing()
   DefineLabel("82")
   ShowMessageFace("suzume_fc1",0,0,2,3)
   ShowMessage("\\n<Chirp>Please treat your wife well, okay?")
   EndEventProcessing()
   0()
  EndIf()
  If(1,1001,0,30,1)
   ShowMessageFace("",0,0,2,4)
   ShowMessage("【おじさん】")
   ShowMessage("おおお～ん！")
   ShowMessage("魔王が怖いよ～！　レラ、たすけて～！")
   EndEventProcessing()
   0()
  EndIf()
  0()



EVENT   20
 PAGE   1
  If(1,806,0,2,1)
   If(0,1549,1)
    ShowMessageFace("mob_touzoku_fc1",0,0,2,1)
    ShowMessage("\\n<Louise>Oi, take me with you. Surely my skills as a thief could prove useful.")
    ShowChoices(strings("Let her join","Decline for now"),0)
    IfPlayerPicksChoice(0,null)
     ShowMessageFace("mob_touzoku_fc1",0,0,2,2)
     ShowMessage("\\n<Louise>Great! Leave it to me!")
     PictureClear(5)
     205(0,bytes(0x04,0x08,0x6f,0x3a,0x13,0x52,0x50,0x47,0x3a,0x3a,0x4d,0x6f,0x76,0x65,0x52,0x6f,0x75,0x74,0x65,0x09,0x3a,0x0c,0x40,0x72,0x65,0x70,0x65,0x61,0x74,0x46,0x3a,0x0f,0x40,0x73,0x6b,0x69,0x70,0x70,0x61,0x62,0x6c,0x65,0x46,0x3a,0x0a,0x40,0x77,0x61,0x69,0x74,0x54,0x3a,0x0a,0x40,0x6c,0x69,0x73,0x74,0x5b,0x09,0x6f,0x3a,0x15,0x52,0x50,0x47,0x3a,0x3a,0x4d,0x6f,0x76,0x65,0x43,0x6f,0x6d,0x6d,0x61,0x6e,0x64,0x07,0x3a,0x0a,0x40,0x63,0x6f,0x64,0x65,0x69,0x2a,0x3a,0x10,0x40,0x70,0x61,0x72,0x61,0x6d,0x65,0x74,0x65,0x72,0x73,0x5b,0x00,0x6f,0x3b,0x0a,0x07,0x3b,0x0b,0x69,0x0f,0x3b,0x0c,0x5b,0x00,0x6f,0x3b,0x0a,0x07,0x3b,0x0b,0x69,0x2c,0x3b,0x0c,0x5b,0x00,0x6f,0x3b,0x0a,0x07,0x3b,0x0b,0x69,0x00,0x3b,0x0c,0x5b,0x00))
     355("add_actor_ex(549)")
     249(bytes(0x04,0x08,0x6f,0x3a,0x0c,0x52,0x50,0x47,0x3a,0x3a,0x4d,0x45,0x08,0x3a,0x0a,0x40,0x6e,0x61,0x6d,0x65,0x49,0x22,0x0c,0x66,0x61,0x6e,0x66,0x61,0x6c,0x65,0x06,0x3a,0x06,0x45,0x54,0x3a,0x0b,0x40,0x70,0x69,0x74,0x63,0x68,0x69,0x69,0x3a,0x0c,0x40,0x76,0x6f,0x6c,0x75,0x6d,0x65,0x69,0x69))
     ShowMessageFace("",0,0,2,3)
     ShowMessage("Louise has joined the party!")
     Wait(60)
     EndEventProcessing()
     0()
    IfPlayerPicksChoice(1,null)
     ShowMessageFace("mob_touzoku_fc1",0,0,2,4)
     ShowMessage("\\n<Louise>Let me know if you change your mind...")
     0()
    404()
    0()
   EndIf()
   0()
  EndIf()
  RunCommonEvent(7051)
  0()
 PAGE   2
  // condition: party contains actor #549
  0()



EVENT   21
 PAGE   1
  ShowMessageFace("",0,0,2,1)
  ShowMessage("\\n<Merchant>After completing a dungeon, do you find returning to town annoying? Well, you're in luck! The [Merchant] job skill [Rescue Request] is just what you need!")
  ShowMessageFace("",0,0,2,2)
  ShowMessage("\\n<Merchant>For one easy payment, you can return to the outside in a jiffy. Sure, there's magic that'll do the same thing, but who wants to go through all that trouble to learn it...")
  ShowMessageFace("",0,0,2,3)
  ShowMessage("\\n<Merchant>But wait, there's more! Ever need to restock on items from distant places? Now you can! With [Carriage], you can return to any town you've ever visited. Villages too!")
  ShowMessageFace("",0,0,2,4)
  ShowMessage("\\n<Merchant>Now I know what you're thinking: yeah, a [Merchant] might not be the best party member in a fight, but you can keep one in your reserve party and still benefit from their support.")
  355("actor_label_jump")
  EndEventProcessing()
  DefineLabel("59")
  ShowMessageFace("mdg_fc1",0,0,2,5)
  ShowMessage("\\n<Ragora>I can support too, you know. I sing, I dance, I play, I scream...")
  EndEventProcessing()
  DefineLabel("66")
  ShowMessageFace("vgirl_fc1",0,0,2,6)
  ShowMessage("\\n<Vanilla>In other words, I'm an indispensable member of this adventure!")
  EndEventProcessing()
  DefineLabel("75")
  ShowMessageFace("hituzi_fc1",3,0,2,7)
  ShowMessage("\\n<Mary>Is there a [Drunk] job by any chance?")
  EndEventProcessing()
  0()



EVENT   22
 PAGE   1
  If(1,1011,0,3,2)
   ShowMessageFace("",0,0,2,1)
   ShowMessage("\\n<Village Chief>Ooh, what a disaster this is...\nTravelers, I'm sure you've heard about our situation.")
   ShowMessageFace("",0,0,2,2)
   ShowMessage("\\n<Village Chief>Please, find out where our harpies have gone. As a representative of Happiness Village, I implore you.")
   ShowMessageFace("",0,0,2,3)
   ShowMessage("\\n<Village Chief>If something bad has happened to my little Harriet, I...!")
   0()
  EndIf()
  If(1,1011,0,4,1)
   If(1,1001,0,29,2)
    ShowMessageFace("",0,0,2,4)
    ShowMessage("\\n<Village Chief>Little Harriet *ahem* I mean, all of the harpies have returned to us safely.")
    ShowMessageFace("",0,0,2,5)
    ShowMessage("\\n<Village Chief>From what I hear, it is all thanks to you. I offer you my thanks on behalf of the entire village.")
    ShowMessageFace("",0,0,2,6)
    ShowMessage("\\n<Village Chief>Tonight, Harriet and I will find a nice place...")
    0()
   EndIf()
   If(1,1001,0,30,1)
    ShowMessageFace("",0,0,2,7)
    ShowMessage("【村長】")
    ShowMessage("ばあさんの見識は、もはやグローバル規模じゃ。")
    ShowMessage("それに比べて、この儂は……")
    ShowMessageFace("",0,0,2,8)
    ShowMessage("【村長】")
    ShowMessage("おおお、我ながらなんとも不甲斐ない。")
    ShowMessage("今晩、ハリエッタちゃんに慰めてもらうとしよう……")
    0()
   EndIf()
   0()
  EndIf()
  205(23,bytes(0x04,0x08,0x6f,0x3a,0x13,0x52,0x50,0x47,0x3a,0x3a,0x4d,0x6f,0x76,0x65,0x52,0x6f,0x75,0x74,0x65,0x09,0x3a,0x0c,0x40,0x72,0x65,0x70,0x65,0x61,0x74,0x46,0x3a,0x0f,0x40,0x73,0x6b,0x69,0x70,0x70,0x61,0x62,0x6c,0x65,0x46,0x3a,0x0a,0x40,0x77,0x61,0x69,0x74,0x54,0x3a,0x0a,0x40,0x6c,0x69,0x73,0x74,0x5b,0x07,0x6f,0x3a,0x15,0x52,0x50,0x47,0x3a,0x3a,0x4d,0x6f,0x76,0x65,0x43,0x6f,0x6d,0x6d,0x61,0x6e,0x64,0x07,0x3a,0x0a,0x40,0x63,0x6f,0x64,0x65,0x69,0x1e,0x3a,0x10,0x40,0x70,0x61,0x72,0x61,0x6d,0x65,0x74,0x65,0x72,0x73,0x5b,0x00,0x6f,0x3b,0x0a,0x07,0x3b,0x0b,0x69,0x00,0x3b,0x0c,0x5b,0x00))
  ShowMessageFace("",0,0,2,9)
  ShowMessage("\\n<Village Chief's Wife>*Whack*!")
  ShowMessageFace("",0,0,2,10)
  ShowMessage("\\n<Village Chief>Gah!")
  0()



EVENT   23
 PAGE   1
  If(1,1011,0,3,2)
   ShowMessageFace("",0,0,2,1)
   ShowMessage("\\n<Village Chief's Wife>Lately, the village chief can't do anything but worry about his lover. This whole mess is causing our village a lot of problems.")
   ShowMessageFace("",0,0,2,2)
   ShowMessage("\\n<Village Chief's Wife>For as long as we can remember, our village has been bound by marriage to the harpy village. Without them around, we'll probably become overrun with virgin boys.")
   ShowMessageFace("",0,0,2,3)
   ShowMessage("\\n<Village Chief's Wife>Who would want to live in a village that constantly smelled like cum? Not me, that's for sure. We'd face a serious shortage of labor as well.")
   ShowMessageFace("",0,0,2,4)
   ShowMessage("\\n<Village Chief's Wife>Travelers, please find where the harpies went. Of course, a reward would be in order. Please, we need your help.")
   355("actor_label_jump")
   EndEventProcessing()
   DefineLabel("62")
   ShowMessageFace("gob_fc1",0,0,2,5)
   ShowMessage("\\n<Gob>Okay, leave it to us!")
   EndEventProcessing()
   DefineLabel("80")
   ShowMessageFace("orc_fc1",0,0,2,6)
   ShowMessage("\\n<Hip>Orcs are always willing to help, even if we have to give the clothes off our backs!")
   EndEventProcessing()
   0()
  EndIf()
  If(1,1011,0,4,1)
   If(1,1001,0,29,2)
    ShowMessageFace("",0,0,2,7)
    ShowMessage("\\n<Village Chief's Wife>Thanks to you, the harpies have returned. The men of our village are reunited with their families, and things are getting back to normal.")
    If(2,"A",1)
     ChangeSelfSwitch("A",0)
     ShowMessageFace("",0,0,2,8)
     ShowMessage("\\n<Village Chief's Wife>Everyone pitched in to thank you for your help. Please, accept this as a token of our gratitude.")
     125(0,0,1000)
     250(bytes(0x04,0x08,0x6f,0x3a,0x0c,0x52,0x50,0x47,0x3a,0x3a,0x53,0x45,0x08,0x3a,0x0a,0x40,0x6e,0x61,0x6d,0x65,0x49,0x22,0x0a,0x49,0x74,0x65,0x6d,0x31,0x06,0x3a,0x06,0x45,0x54,0x3a,0x0b,0x40,0x70,0x69,0x74,0x63,0x68,0x69,0x69,0x3a,0x0c,0x40,0x76,0x6f,0x6c,0x75,0x6d,0x65,0x69,0x55))
     ShowMessageFace("",0,0,2,9)
     ShowMessage("Acquired 1000\\G!")
     0()
    EndIf()
    ShowMessageFace("",0,0,2,10)
    ShowMessage("\\n<Village Chief's Wife>As a representative of the village, let me offer my sincerest thanks. You are welcome here any time.")
    ShowMessageFace("",0,0,2,11)
    ShowMessage("\\n<Village Chief's Wife>If you'd like, a reception of beautiful harpies could be arranged. Or if you so desire, I will be your lovely flower...")
    205(22,bytes(0x04,0x08,0x6f,0x3a,0x13,0x52,0x50,0x47,0x3a,0x3a,0x4d,0x6f,0x76,0x65,0x52,0x6f,0x75,0x74,0x65,0x09,0x3a,0x0c,0x40,0x72,0x65,0x70,0x65,0x61,0x74,0x46,0x3a,0x0f,0x40,0x73,0x6b,0x69,0x70,0x70,0x61,0x62,0x6c,0x65,0x46,0x3a,0x0a,0x40,0x77,0x61,0x69,0x74,0x54,0x3a,0x0a,0x40,0x6c,0x69,0x73,0x74,0x5b,0x07,0x6f,0x3a,0x15,0x52,0x50,0x47,0x3a,0x3a,0x4d,0x6f,0x76,0x65,0x43,0x6f,0x6d,0x6d,0x61,0x6e,0x64,0x07,0x3a,0x0a,0x40,0x63,0x6f,0x64,0x65,0x69,0x1e,0x3a,0x10,0x40,0x70,0x61,0x72,0x61,0x6d,0x65,0x74,0x65,0x72,0x73,0x5b,0x00,0x6f,0x3b,0x0a,0x07,0x3b,0x0b,0x69,0x00,0x3b,0x0c,0x5b,0x00))
    ShowMessageFace("",0,0,2,12)
    ShowMessage("\\n<Village Chief>*Whack*!")
    ShowMessageFace("",0,0,2,13)
    ShowMessage("\\n<Village Chief's Wife>Gah!")
    0()
   EndIf()
   If(1,1001,0,30,1)
    ShowMessageFace("",0,0,2,14)
    ShowMessage("【村長夫人】")
    ShowMessage("魔王の宣戦布告も大変じゃが、今のところこの村に被害はない。")
    ShowMessage("ミツバチの大量死の方が、よほど大問題じゃな……")
    ShowMessageFace("",0,0,2,15)
    ShowMessage("【村長夫人】")
    ShowMessage("ハチミツが採れんだけではない、作物の受粉にも重要な役割を果たしておる。")
    ShowMessage("ミツバチがおらんようになれば、世界規模の食料危機になりかねん……")
    EndEventProcessing()
    0()
   EndIf()
   0()
  EndIf()
  0()



EVENT   24
 PAGE   1
  ShowMessageFace("",0,0,2,1)
  ShowMessage("\\n<Young Wife>They say that the harpies left on their own. It doesn't look like they were attacked, and they even locked up behind them.")
  ShowMessageFace("",0,0,2,2)
  ShowMessage("\\n<Young Wife>But they left without saying anything to us... We were so close with them though. It's hard to believe they just left.")
  355("actor_label_jump")
  EndEventProcessing()
  DefineLabel("55")
  ShowMessageFace("name_fc1",0,0,2,3)
  ShowMessage("\\n<Melk>You were so close, but perhaps so far away as well... Maybe your relationship wasn't as deep as you thought?")
  ShowMessageFace("",0,0,2,4)
  ShowMessage("\\n<Young Wife>...")
  EndEventProcessing()
  0()
 PAGE   2
  // condition: variable 1011 >= 4
  If(1,1001,0,29,2)
   ShowMessageFace("",0,0,2,1)
   ShowMessage("\\n<Young Wife>The harpies have safely returned. All I can say is thank goodness!")
   355("actor_label_jump")
   EndEventProcessing()
   DefineLabel("83")
   ShowMessageFace("hapy_a_fc1",0,0,2,2)
   ShowMessage("\\n<Reina>We're relieved too. None of us ever thought it would become that serious...")
   EndEventProcessing()
   0()
  EndIf()
  If(1,1001,0,30,1)
   ShowMessageFace("",0,0,2,3)
   ShowMessage("【若奥さん】")
   ShowMessage("夫が言っていたのですが……")
   ShowMessage("異常行動や大量死を起こしているのは、ミツバチだけではないようです。")
   ShowMessageFace("",0,0,2,4)
   ShowMessage("【若奥さん】")
   ShowMessage("様々な昆虫に鳥、イルカやクジラまで……")
   ShowMessage("全世界規模で、野生動物が奇妙な行動を見せているのだとか。")
   EndEventProcessing()
   0()
  EndIf()
  0()



EVENT   25
 PAGE   1
  If(1,1001,0,29,2)
   If(1,1011,0,3,2)
    ShowMessageFace("",0,0,2,1)
    ShowMessage("\\n<Scholar>From what we can tell, the harpies must have left of their own accord. But as my wife points out, it's strange that they didn't say anything to any of us.")
    ShowMessageFace("",0,0,2,2)
    ShowMessage("\\n<Scholar>It is at least conceivable that they caught a contagious disease and quarantined themselves to prevent spreading it...")
    ShowMessageFace("",0,0,2,3)
    ShowMessage("\\n<Scholar>Unfortunately, we don't know much about monster physiology. We know they can be poisoned, but there aren't any recorded cases of them getting sick.")
    0()
   EndIf()
   If(1,1011,0,4,1)
    ShowMessageFace("",0,0,2,4)
    ShowMessage("\\n<Scholar>Wow, so they really did get sick. I'm surprised there's a disease that can infect monsters.")
    0()
   EndIf()
   0()
  EndIf()
  If(1,1001,0,30,1)
   ShowMessageFace("",0,0,2,5)
   ShowMessage("【学者】")
   ShowMessage("最近増加している、ミツバチの大量死を調査しています。")
   ShowMessage("とりあえず、既存の病気という線は完全に消えました。")
   ShowMessageFace("",0,0,2,6)
   ShowMessage("【学者】")
   ShowMessage("生きているミツバチも、どうやら行動が奇妙なのですよね。")
   ShowMessage("何が原因なのか、依然として不明です……")
   EndEventProcessing()
   0()
  EndIf()
  0()



EVENT   26
 PAGE   1
  ShowMessageFace("",0,0,2,1)
  ShowMessage("\\n<Boy>My father is a great teacher! He teaches at Iliasport's Academy!")
  355("actor_label_jump")
  EndEventProcessing()
  DefineLabel("76")
  ShowMessageFace("syuree_fc1",1,0,2,2)
  ShowMessage("\\n<Sully>My father is a shrimp! ...actually I have no idea who he is.")
  EndEventProcessing()
  0()




EVENT   27
 PAGE   1
  250(bytes(0x04,0x08,0x6f,0x3a,0x0c,0x52,0x50,0x47,0x3a,0x3a,0x53,0x45,0x08,0x3a,0x0a,0x40,0x6e,0x61,0x6d,0x65,0x49,0x22,0x0a,0x49,0x74,0x65,0x6d,0x31,0x06,0x3a,0x06,0x45,0x54,0x3a,0x0b,0x40,0x70,0x69,0x74,0x63,0x68,0x69,0x69,0x3a,0x0c,0x40,0x76,0x6f,0x6c,0x75,0x6d,0x65,0x69,0x55))
  ChangeSelfSwitch("A",0)
  ChangeInventory_Item(167,0,0,1)
  0()
 PAGE   2
  // condition: self-switch A is ON
  0()



EVENT   28
 PAGE   1
  250(bytes(0x04,0x08,0x6f,0x3a,0x0c,0x52,0x50,0x47,0x3a,0x3a,0x53,0x45,0x08,0x3a,0x0a,0x40,0x6e,0x61,0x6d,0x65,0x49,0x22,0x0a,0x49,0x74,0x65,0x6d,0x31,0x06,0x3a,0x06,0x45,0x54,0x3a,0x0b,0x40,0x70,0x69,0x74,0x63,0x68,0x69,0x69,0x3a,0x0c,0x40,0x76,0x6f,0x6c,0x75,0x6d,0x65,0x69,0x55))
  ChangeSelfSwitch("A",0)
  ChangeInventory_Item(13,0,0,1)
  0()
 PAGE   2
  // condition: self-switch A is ON
  0()




EVENT   29
 PAGE   1
  250(bytes(0x04,0x08,0x6f,0x3a,0x0c,0x52,0x50,0x47,0x3a,0x3a,0x53,0x45,0x08,0x3a,0x0a,0x40,0x6e,0x61,0x6d,0x65,0x49,0x22,0x0a,0x49,0x74,0x65,0x6d,0x31,0x06,0x3a,0x06,0x45,0x54,0x3a,0x0b,0x40,0x70,0x69,0x74,0x63,0x68,0x69,0x69,0x3a,0x0c,0x40,0x76,0x6f,0x6c,0x75,0x6d,0x65,0x69,0x55))
  ChangeSelfSwitch("A",0)
  ChangeInventory_Item(11,0,0,1)
  0()
 PAGE   2
  // condition: self-switch A is ON
  0()



EVENT   30
 PAGE   1
  ShowMessageFace("",0,0,2,1)
  ShowMessage("\\n<Traveling Warrior>Monsters in the Harpy family have a very high evade rate. Usually, physical attacks will whiff right past them.")
  ShowMessageFace("",0,0,2,2)
  ShowMessage("\\n<Traveling Warrior>Weapons like axes and boomerangs are easily avoided. Instead, a high accuracy weapon like a bow is the way to go.")
  ShowMessageFace("",0,0,2,3)
  ShowMessage("\\n<Traveling Warrior>Magic attacks work well too, I suppose. Even those nimble harpies can't dodge a spell.")
  355("actor_label_jump")
  EndEventProcessing()
  DefineLabel("74")
  ShowMessageFace("usagi_fc1",0,0,2,4)
  ShowMessage("\\n<Barbun>As a Hunter, I can easily take down harpies.")
  EndEventProcessing()
  DefineLabel("78")
  ShowMessageFace("syesta_fc1",0,0,2,5)
  ShowMessage("\\n<Shesta>Leave the magic to me...")
  EndEventProcessing()
  0()


