// EVENT 0047
Name "Skill: Play 71-80"

ChangeVariable(11,11,0,2,1,5)
If(1,100,0,71,0)
 If(1,11,0,1,0)
  ShowMessageFace("okami_fc1",0,0,2,1)
  ShowMessage("\\n<Amara>Awoo!")
  ShowMessageFace("",0,0,2,2)
  ShowMessage("Amara howles.")
  EndEventProcessing()
  0()
 EndIf()
 If(1,11,0,2,0)
  ShowMessageFace("okami_fc1",0,0,2,3)
  ShowMessage("\\n<Amara>A banquet for wolves!　Awooo!")
  ShowMessageFace("",0,0,2,4)
  ShowMessage("Amara dances and sings happily.")
  EndEventProcessing()
  0()
 EndIf()
 If(1,11,0,3,0)
  ShowMessageFace("okami_fc1",1,0,2,5)
  ShowMessage("\\n<Amara>Moon! Uga!")
  355("interrupt_skill(2727)")
  EndEventProcessing()
  0()
 EndIf()
 If(1,11,0,4,0)
  ShowMessageFace("okami_fc1",0,0,2,6)
  ShowMessage("\\n<Amara>Awoooooooo!")
  355("interrupt_skill(2698)")
  EndEventProcessing()
  0()
 EndIf()
 If(1,11,0,5,0)
  ShowMessageFace("okami_fc1",3,0,2,7)
  ShowMessage("\\n<Amara>Drinking sake while watching the moon! Awoo!")
  355("interrupt_skill(3154)")
  EndEventProcessing()
  0()
 EndIf()
 0()
EndIf()
If(1,100,0,72,0)
 If(1,11,0,1,0)
  ShowMessageFace("phoenix_fc1",3,0,2,8)
  ShowMessage("\\n<Mini>Hot, hot, I'm a too hot.")
  313(0,72,0,60)
  ShowMessageFace("",0,0,2,9)
  ShowMessage("Mini's seems to have become a little too hot.")
  EndEventProcessing()
  0()
 EndIf()
 If(1,11,0,2,0)
  ShowMessageFace("phoenix_fc1",1,0,2,10)
  ShowMessage("\\n<Mini>Fight! I'll cheer for you!")
  ShowMessageFace("",0,0,2,11)
  ShowMessage("Mini was rooting for everyone.")
  ShowMessage("...but no one was listening.")
  EndEventProcessing()
  0()
 EndIf()
 If(1,11,0,3,0)
  ShowMessageFace("phoenix_fc1",1,0,2,12)
  ShowMessage("\\n<Mini>Ratataa♪")
  ShowMessageFace("",0,0,2,13)
  ShowMessage("Mini is dancing strangely.")
  EndEventProcessing()
  0()
 EndIf()
 If(1,11,0,4,0)
  ShowMessageFace("phoenix_fc1",2,0,2,14)
  ShowMessage("\\n<Mini>My body is on fire!　Hot!　It's soo hot!")
  355("interrupt_skill(3068)")
  EndEventProcessing()
  0()
 EndIf()
 If(1,11,0,5,0)
  ShowMessageFace("phoenix_fc1",3,0,2,15)
  ShowMessage("\\n<Mini>My tail feathers fell out. You can have them.")
  250(bytes(0x04,0x08,0x6f,0x3a,0x0c,0x52,0x50,0x47,0x3a,0x3a,0x53,0x45,0x08,0x3a,0x0a,0x40,0x6e,0x61,0x6d,0x65,0x49,0x22,0x0a,0x49,0x74,0x65,0x6d,0x31,0x06,0x3a,0x06,0x45,0x54,0x3a,0x0b,0x40,0x70,0x69,0x74,0x63,0x68,0x69,0x69,0x3a,0x0c,0x40,0x76,0x6f,0x6c,0x75,0x6d,0x65,0x69,0x55))
  ChangeInventory_Item(11,0,0,1)
  ShowMessageFace("",0,0,2,16)
  ShowMessage("You obtain a [Pheonix Tail]!")
  EndEventProcessing()
  0()
 EndIf()
 0()
EndIf()
If(1,100,0,73,0)
 If(1,11,0,1,0)
  ShowMessageFace("hiru_fc1",0,0,2,17)
  ShowMessage("\\n<Hiru>I'm hungry.")
  ShowMessageFace("",0,0,2,18)
  ShowMessage("Hiru is in a daze!")
  EndEventProcessing()
  0()
 EndIf()
 If(1,11,0,2,0)
  ShowMessageFace("hiru_fc1",0,0,2,19)
  ShowMessage("\\n<Hiru>Let me know when you are done.")
  ShowMessageFace("",0,0,2,20)
  ShowMessage("Hiru doodles on the ground.")
  EndEventProcessing()
  0()
 EndIf()
 If(1,11,0,3,0)
  ShowMessageFace("name_fc1",2,0,2,21)
  ShowMessage("\\n<ナメ>Are you all right Hiru?\nI'm here to help.")
  ShowMessageFace("mimizu_fc1",1,0,2,22)
  ShowMessage("\\n<ワミー>Don't be a stranger, Hiru.\nDon't try to fight by yourself.")
  ShowMessageFace("hiru_fc1",0,0,2,23)
  ShowMessage("\\n<Hiru>Everyone, you came?!")
  ShowMessageFace("name_fc1",2,0,2,24)
  ShowMessage("\\n<ナメ>Come on. Let's fight together.")
  ShowMessageFace("mimizu_fc1",1,0,2,25)
  ShowMessage("\\n<ワミー>Let's go, with everyone's power!")
  ShowMessageFace("hiru_fc1",0,0,2,26)
  ShowMessage("\\n<Hiru>Through the power of friendship! Slimy Typhoon!")
  355("interrupt_skill(3309)")
  EndEventProcessing()
  0()
 EndIf()
 If(1,11,0,4,0)
  ShowMessageFace("hiru_fc1",0,0,2,27)
  ShowMessage("\\n<Hiru>I am also skilled with beanbags.")
  ShowMessageFace("",0,0,2,28)
  ShowMessage("Hiru juggles.")
  ShowMessage("...but no one was watching!")
  EndEventProcessing()
  0()
 EndIf()
 If(1,11,0,5,0)
  ShowMessageFace("hiru_fc1",0,0,2,29)
  ShowMessage("\\n<Hiru>Yes, here you go... Is it good?")
  ShowMessageFace("",0,0,2,30)
  ShowMessage("Hiru gave food to her lower mouth.")
  EndEventProcessing()
  0()
 EndIf()
 0()
EndIf()
If(1,100,0,74,0)
 If(1,11,0,1,0)
  ShowMessageFace("usagi_fc1",0,0,2,31)
  ShowMessage("\\n<Barbun>Whew, it's hot.\nShould big sis just take it off?")
  ShowMessageFace("",0,0,2,32)
  ShowMessage("Barbun begins to undress.")
  EndEventProcessing()
  0()
 EndIf()
 If(1,11,0,2,0)
  ShowMessageFace("usagi_fc1",2,0,2,33)
  ShowMessage("\\n<Barbun>Even big sis gets thirsty from time to time.")
  355("interrupt_skill(3154)")
  EndEventProcessing()
  0()
 EndIf()
 If(1,11,0,3,0)
  ShowMessageFace("usagi_fc1",0,0,2,34)
  ShowMessage("\\n<Barbun>All right, everyone!　Give big sis your attention! ♪")
  355("interrupt_skill(2035)")
  EndEventProcessing()
  0()
 EndIf()
 If(1,11,0,4,0)
  ShowMessageFace("usagi_fc1",1,0,2,35)
  ShowMessage("\\n<Barbun>I need to stay in shape.\nHow about I jump rope?")
  ShowMessageFace("",0,0,2,36)
  ShowMessage("Barbun began to jump rope!")
  ShowMessage("Her breasts are bouncing all around!")
  313(0,1,0,276)
  ShowMessageFace("",0,0,2,37)
  ShowMessage("...Luka could not help but watch.")
  EndEventProcessing()
  0()
 EndIf()
 If(1,11,0,5,0)
  ShowMessageFace("usagi_fc1",1,0,2,38)
  ShowMessage("\\n<Barbun>Fufu, won't you play with big sis?")
  355("interrupt_skill(3296)")
  EndEventProcessing()
  0()
 EndIf()
 0()
EndIf()
If(1,100,0,75,0)
 If(1,11,0,1,0)
  ShowMessageFace("hituzi_fc1",7,0,2,39)
  ShowMessage("\\n<シープ>Glub glub glub...")
  355("interrupt_skill(3154)")
  EndEventProcessing()
  0()
 EndIf()
 If(1,11,0,2,0)
  ShowMessageFace("hituzi_fc1",3,0,2,40)
  ShowMessage("\\n<Mary>Hehehe!\nHehe!　Heee!")
  ShowMessageFace("",0,0,2,41)
  ShowMessage("Mary is laughing.")
  EndEventProcessing()
  0()
 EndIf()
 If(1,11,0,3,0)
  ShowMessageFace("hituzi_fc1",3,0,2,42)
  ShowMessage("\\n<Mary>It's no use... I'm going to bed.\nPlease don't attack me.")
  ShowMessageFace("",0,0,2,43)
  ShowMessage("Mary fell asleep!")
  313(0,75,0,11)
  EndEventProcessing()
  0()
 EndIf()
 If(1,11,0,4,0)
  ShowMessageFace("hituzi_fc1",3,0,2,44)
  ShowMessage("\\n<Mary>Uraa! For great sake!")
  ShowMessageFace("",0,0,2,45)
  ShowMessage("Mary goes on a rampage.")
  ShowMessage("...but immediately trips.")
  EndEventProcessing()
  0()
 EndIf()
 If(1,11,0,5,0)
  ShowMessageFace("hituzi_fc1",3,0,2,46)
  ShowMessage("\\n<Mary>Roll out!\nRoll, roll, roll!")
  355("interrupt_skill(2695)")
  EndEventProcessing()
  0()
 EndIf()
 0()
EndIf()
If(1,100,0,76,0)
 If(1,11,0,1,0)
  ShowMessageFace("syuree_fc1",1,0,2,47)
  ShowMessage("\\n<Sully>Awawawaaa! ♪")
  ShowMessageFace("",0,0,2,48)
  ShowMessage("Sully produced a large amount of foam!")
  ShowMessage("...but nothing happened.")
  EndEventProcessing()
  0()
 EndIf()
 If(1,11,0,2,0)
  ShowMessageFace("syuree_fc1",1,0,2,49)
  ShowMessage("\\n<Sully>Shrimp! Shriiimp! ♪")
  ShowMessageFace("",0,0,2,50)
  ShowMessage("Sully is dancing strangely.")
  EndEventProcessing()
  0()
 EndIf()
 If(1,11,0,3,0)
  ShowMessageFace("syuree_fc1",4,0,2,51)
  ShowMessage("\\n<Sully>Pinch, pinch! I'm a shrimp, don't eat meee... ♪")
  ShowMessageFace("",0,0,2,52)
  ShowMessage("Sully is imitating a shrimp.")
  EndEventProcessing()
  0()
 EndIf()
 If(1,11,0,4,0)
  ShowMessageFace("syuree_fc1",2,0,2,53)
  ShowMessage("\\n<Sully>Think of this as me.")
  250(bytes(0x04,0x08,0x6f,0x3a,0x0c,0x52,0x50,0x47,0x3a,0x3a,0x53,0x45,0x08,0x3a,0x0a,0x40,0x6e,0x61,0x6d,0x65,0x49,0x22,0x0a,0x49,0x74,0x65,0x6d,0x31,0x06,0x3a,0x06,0x45,0x54,0x3a,0x0b,0x40,0x70,0x69,0x74,0x63,0x68,0x69,0x69,0x3a,0x0c,0x40,0x76,0x6f,0x6c,0x75,0x6d,0x65,0x69,0x55))
  ChangeInventory_Item(327,0,0,1)
  ShowMessageFace("",0,0,2,54)
  ShowMessage("Sully handed you a shrimp.")
  ShowMessage("You obtain a [Shrimp]!")
  EndEventProcessing()
  0()
 EndIf()
 If(1,11,0,5,0)
  ShowMessageFace("syuree_fc1",2,0,2,55)
  ShowMessage("\\n<Sully>Geez, no more!")
  250(bytes(0x04,0x08,0x6f,0x3a,0x0c,0x52,0x50,0x47,0x3a,0x3a,0x53,0x45,0x08,0x3a,0x0a,0x40,0x6e,0x61,0x6d,0x65,0x49,0x22,0x08,0x52,0x75,0x6e,0x06,0x3a,0x06,0x45,0x54,0x3a,0x0b,0x40,0x70,0x69,0x74,0x63,0x68,0x69,0x69,0x3a,0x0c,0x40,0x76,0x6f,0x6c,0x75,0x6d,0x65,0x69,0x55))
  ShowMessageFace("",0,0,2,56)
  ShowMessage("Sully ran away!")
  ShowMessage("...But she didn't know where to go and immediately came back.")
  EndEventProcessing()
  0()
 EndIf()
 0()
EndIf()
If(1,100,0,77,0)
 If(1,11,0,1,0)
  ShowMessageFace("jeid_fc1",0,0,2,57)
  ShowMessage("\\n<Jaide>Currently performing defragmentation.")
  ShowMessageFace("",0,0,2,58)
  ShowMessage("Jaide is in a daze.")
  EndEventProcessing()
  0()
 EndIf()
 If(1,11,0,2,0)
  ShowMessageFace("jeid_fc1",0,0,2,59)
  ShowMessage("\\n<Jaide>OS has frozeeeee.")
  313(0,77,0,12)
  ShowMessageFace("",0,0,2,60)
  ShowMessage("Jaide is paralyzed!")
  EndEventProcessing()
  0()
 EndIf()
 If(1,11,0,3,0)
  ShowMessageFace("jeid_fc1",0,0,2,61)
  ShowMessage("\\n<Jaide>Discharge from the body.")
  355("interrupt_skill(3308)")
  EndEventProcessing()
  0()
 EndIf()
 If(1,11,0,4,0)
  ShowMessageFace("jeid_fc1",0,0,2,62)
  ShowMessage("\\n<Jaide>Jaide is a robo...")
  ShowMessageFace("",0,0,2,63)
  ShowMessage("Jaide's speech functions suddenly broke!")
  EndEventProcessing()
  0()
 EndIf()
 If(1,11,0,5,0)
  ShowMessageFace("jeid_fc1",0,0,2,64)
  ShowMessage("\\n<Jaide>How about I screw you too?!")
  ShowMessageFace("",0,0,2,65)
  ShowMessage("Jaide is working on her catchphrase...")
  EndEventProcessing()
  0()
 EndIf()
 0()
EndIf()
If(1,100,0,78,0)
 If(1,11,0,1,0)
  ShowMessageFace("syesta_fc1",0,0,2,66)
  ShowMessage("\\n<Shesta>My clothes... are torn...")
  ShowMessageFace("",0,0,2,67)
  ShowMessage("Shesta began mending her skirt.")
  EndEventProcessing()
  0()
 EndIf()
 If(1,11,0,2,0)
  ShowMessageFace("syesta_fc1",0,0,2,68)
  ShowMessage("\\n<Shesta>It's a bit rude... but I'm hungry.")
  ShowMessageFace("",0,0,2,69)
  ShowMessage("Shesta has stolen some food.")
  EndEventProcessing()
  0()
 EndIf()
 If(1,11,0,3,0)
  ShowMessageFace("syesta_fc1",0,0,2,70)
  ShowMessage("\\n<Shesta>I remember...")
  ShowMessageFace("",0,0,2,71)
  ShowMessage("Shesta is in a daze.")
  EndEventProcessing()
  0()
 EndIf()
 If(1,11,0,4,0)
  ShowMessageFace("syesta_fc1",0,0,2,72)
  ShowMessage("\\n<Shesta>I tried to remember how. But I think it's burnt.")
  250(bytes(0x04,0x08,0x6f,0x3a,0x0c,0x52,0x50,0x47,0x3a,0x3a,0x53,0x45,0x08,0x3a,0x0a,0x40,0x6e,0x61,0x6d,0x65,0x49,0x22,0x0a,0x49,0x74,0x65,0x6d,0x31,0x06,0x3a,0x06,0x45,0x54,0x3a,0x0b,0x40,0x70,0x69,0x74,0x63,0x68,0x69,0x69,0x3a,0x0c,0x40,0x76,0x6f,0x6c,0x75,0x6d,0x65,0x69,0x55))
  ChangeInventory_Item(343,0,0,1)
  ShowMessageFace("",0,0,2,73)
  ShowMessage("It seems Shesta baked some bread.")
  ShowMessage("You obtain some [Bread]!")
  EndEventProcessing()
  0()
 EndIf()
 If(1,11,0,5,0)
  ShowMessageFace("syesta_fc1",0,0,2,74)
  ShowMessage("\\n<Shesta>At times like these... let's dance.")
  355("interrupt_skill(2032)")
  EndEventProcessing()
  0()
 EndIf()
 0()
EndIf()
If(1,100,0,79,0)
 If(1,11,0,1,0)
  ShowMessageFace("nuruko_fc1",2,0,2,75)
  ShowMessage("\\n<Nuruko>......")
  ShowMessageFace("",0,0,2,76)
  ShowMessage("Nuruko seems to be thinking about something difficult.")
  EndEventProcessing()
  0()
 EndIf()
 If(1,11,0,2,0)
  ShowMessageFace("nuruko_fc1",0,0,2,77)
  ShowMessage("\\n<Nuruko>Buuu!!")
  355("interrupt_skill(2815)")
  EndEventProcessing()
  0()
 EndIf()
 If(1,11,0,3,0)
  ShowMessageFace("nuruko_fc1",0,0,2,78)
  ShowMessage("\\n<Nuruko>...kyu.")
  250(bytes(0x04,0x08,0x6f,0x3a,0x0c,0x52,0x50,0x47,0x3a,0x3a,0x53,0x45,0x08,0x3a,0x0a,0x40,0x6e,0x61,0x6d,0x65,0x49,0x22,0x0a,0x49,0x74,0x65,0x6d,0x31,0x06,0x3a,0x06,0x45,0x54,0x3a,0x0b,0x40,0x70,0x69,0x74,0x63,0x68,0x69,0x69,0x3a,0x0c,0x40,0x76,0x6f,0x6c,0x75,0x6d,0x65,0x69,0x55))
  ChangeInventory_Item(448,0,0,1)
  ShowMessageFace("",0,0,2,79)
  ShowMessage("Nuruko caught a beetle.")
  ShowMessage("You obtain a [Beetle]!")
  EndEventProcessing()
  0()
 EndIf()
 If(1,11,0,4,0)
  ShowMessageFace("nuruko_fc1",0,0,2,80)
  ShowMessage("\\n<Nuruko>Kyukyukyuu~. ♪")
  ShowMessageFace("",0,0,2,81)
  ShowMessage("Nuruko is dancing and singing happily.")
  EndEventProcessing()
  0()
 EndIf()
 If(1,11,0,5,0)
  ShowMessageFace("nuruko_fc1",2,0,2,82)
  ShowMessage("\\n<Nuruko>ZZZ...")
  313(0,79,0,11)
  ShowMessageFace("",0,0,2,83)
  ShowMessage("Nuruko fell asleep.")
  EndEventProcessing()
  0()
 EndIf()
 0()
EndIf()
If(1,100,0,80,0)
 If(1,11,0,1,0)
  ShowMessageFace("orc_fc1",0,0,2,84)
  ShowMessage("\\n<Hip>An orc's club is their life.")
  ShowMessageFace("",0,0,2,85)
  ShowMessage("Hip polishes her club.")
  EndEventProcessing()
  0()
 EndIf()
 If(1,11,0,2,0)
  ShowMessageFace("orc_fc1",0,0,2,86)
  ShowMessage("\\n<Hip>Orcs constantly train their bodies!")
  355("interrupt_skill(3291)")
  EndEventProcessing()
  0()
 EndIf()
 If(1,11,0,3,0)
  ShowMessageFace("orc_fc1",0,0,2,87)
  ShowMessage("\\n<Hip>Orc rush! Taaa!")
  355("interrupt_skill(3293)")
  EndEventProcessing()
  0()
 EndIf()
 If(1,11,0,4,0)
  ShowMessageFace("orc_fc1",0,0,2,88)
  ShowMessage("\\n<Hip>Here I gooo!")
  355("interrupt_skill(3294)")
  EndEventProcessing()
  0()
 EndIf()
 If(1,11,0,5,0)
  ShowMessageFace("orc_fc1",0,0,2,89)
  ShowMessage("\\n<Hip>I'm a little hungry. I think I'll...")
  ShowMessageFace("",0,0,2,90)
  ShowMessage("Hip is eating a lunch she brought.")
  EndEventProcessing()
  0()
 EndIf()
 0()
EndIf()
0()
